iteration,sample_mse,sample_positive_x,sample_negative_x,sample_positive_y,sample_negative_y,mse,positive_x,negative_x,positive_y,negative_y
0,0.009288888888888892,75,75,75,75,0.016488600000000003,252,748,252,748
1,0.008666666666666668,75,75,75,75,0.017879,472,528,472,528
2,0.009493333333333333,75,75,75,75,0.015977400000000003,233,767,231,769