iteration,sample_mse,sample_positive_x,sample_negative_x,sample_positive_y,sample_negative_y,mse,positive_x,negative_x,positive_y,negative_y
0,0.010951111111111113,75,75,75,75,0.058577400000000016,246,754,247,753
1,0.007368888888888888,75,75,75,75,0.0368206,767,233,766,234
2,0.008648888888888892,75,75,75,75,0.016191800000000003,878,122,845,155