iteration,sample_mse,mse
0,0.028257777777777784,0.034206
1,0.02713777777777778,0.10121560000000003
2,0.026888888888888896,0.045986000000000006
0,0.027857777777777783,0.022208400000000007
1,0.027440000000000006,0.0182882
2,0.026933333333333337,0.018509200000000003