iteration,sample_mse,sample_positive_x,sample_negative_x,sample_positive_y,sample_negative_y,mse,positive_x,negative_x,positive_y,negative_y
0,0.009235555555555558,75,75,75,75,0.0252724,280,720,268,732
1,0.009653333333333333,75,75,75,75,0.0157768,248,752,248,752
2,0.012177777777777779,75,75,75,75,0.1512446,8,992,149,851
3,0.009555555555555557,75,75,75,75,0.019140800000000003,757,243,757,243
4,0.008577777777777778,75,75,75,75,0.021517400000000006,245,755,196,804
