iteration,sample_mse,sample_positive_x,sample_negative_x,sample_positive_y,sample_negative_y,mse,positive_x,negative_x,positive_y,negative_y
0,0.008915555555555557,75,75,75,75,0.006883800000000001,602,398,602,398
1,0.010960000000000001,75,75,75,75,0.0194718,500,500,500,500
2,0.009946666666666666,75,75,75,75,0.0224856,751,249,751,249
3,0.010773333333333333,75,75,75,75,0.0125336,431,569,428,572
4,0.01160888888888889,75,75,75,75,0.014969200000000002,745,255,745,255