iteration,sample_mse,sample_positive_x,sample_negative_x,sample_positive_y,sample_negative_y,mse,positive_x,negative_x,positive_y,negative_y
0,0.008231111111111113,75,75,75,75,0.015482200000000002,None,None,None,None
1,0.009600000000000001,75,75,75,75,0.018377000000000004,None,None,None,None
2,0.009351111111111112,75,75,75,75,0.0201582,None,None,None,None
3,0.0071911111111111125,75,75,75,75,0.016924400000000003,None,None,None,None
4,0.00856,75,75,75,75,0.0158776,None,None,None,None
5,0.008835555555555555,75,75,75,75,0.013196600000000003,None,None,None,None