Traceback (most recent call last):
  File "/afs/cern.ch/user/a/abarkley/private/gan-testing/muon/generate_sample.py", line 106, in <module>
    sample_cdf = gstats.cdf(verification_sample,x,y)
NameError: name 'verification_sample' is not defined
