4870314
------iteration 0------
tensor([[-0.1204,  0.1899, -0.0745,  0.2153, -0.0490],
        [ 0.0948, -0.0836, -0.0629,  0.0637, -0.0030],
        [ 0.0934, -0.1523, -0.0068, -0.0234,  0.0165],
        ...,
        [-0.1096, -0.0798, -0.2235,  0.0604, -0.2177],
        [-0.1214, -0.0343, -0.0689,  0.0795, -0.0700],
        [-0.0030,  0.0214, -0.0388,  0.0724, -0.0090]])
/afs/cern.ch/user/a/abarkley/private/gan-testing/muon/results/4870314.plk
generated sample
