------iteration 0------
tensor([[ 0.1701, -0.3706,  0.9203, -0.0615,  0.0129],
        [ 0.1994, -0.4750,  0.8592,  0.0060,  0.0145],
        [ 0.0645, -0.6429, -0.4336, -0.0242, -0.0209],
        ...,
        [ 0.0854,  0.7302, -0.3358, -0.0390, -0.0290],
        [ 0.0652, -0.1891,  0.4390,  0.0097,  0.0234],
        [ 0.1386,  0.5626,  0.4517,  0.0029, -0.0742]])
/afs/cern.ch/user/a/abarkley/private/gan-testing/muon/results/0.plk
